EESchema Schematic File Version 4
EELAYER 30 0
EELAYER END
$Descr A4 11693 8268
encoding utf-8
Sheet 2 2
Title ""
Date ""
Rev ""
Comp ""
Comment1 ""
Comment2 ""
Comment3 ""
Comment4 ""
$EndDescr
$Comp
L power:+3.3V #PWR?
U 1 1 61D8285A
P 2500 2500
F 0 "#PWR?" H 2500 2350 50  0001 C CNN
F 1 "+3.3V" V 2515 2628 50  0000 L CNN
F 2 "" H 2500 2500 50  0001 C CNN
F 3 "" H 2500 2500 50  0001 C CNN
	1    2500 2500
	0    -1   -1   0   
$EndComp
$Comp
L Regulator_Linear:LM317_3PinPackage U0
U 1 1 61D843AC
P 3800 2500
F 0 "U0" H 3800 2742 50  0000 C CNN
F 1 "LM317_3PinPackage" H 3800 2651 50  0000 C CNN
F 2 "" H 3800 2750 50  0001 C CIN
F 3 "http://www.ti.com/lit/ds/symlink/lm317.pdf" H 3800 2500 50  0001 C CNN
	1    3800 2500
	1    0    0    -1  
$EndComp
$Comp
L Device:Battery BT?
U 1 1 61D859E9
P 5000 2700
F 0 "BT?" H 5108 2746 50  0000 L CNN
F 1 "Battery" H 5108 2655 50  0000 L CNN
F 2 "" V 5000 2760 50  0001 C CNN
F 3 "~" V 5000 2760 50  0001 C CNN
	1    5000 2700
	1    0    0    -1  
$EndComp
Wire Wire Line
	2500 2500 3000 2500
Wire Wire Line
	4100 2500 5000 2500
$Comp
L power:GND #PWR?
U 1 1 61D8A9A8
P 5000 3500
F 0 "#PWR?" H 5000 3250 50  0001 C CNN
F 1 "GND" H 5005 3327 50  0000 C CNN
F 2 "" H 5000 3500 50  0001 C CNN
F 3 "" H 5000 3500 50  0001 C CNN
	1    5000 3500
	1    0    0    -1  
$EndComp
$Comp
L power:GND #PWR?
U 1 1 61D8BFFD
P 2500 3800
F 0 "#PWR?" H 2500 3550 50  0001 C CNN
F 1 "GND" V 2505 3672 50  0000 R CNN
F 2 "" H 2500 3800 50  0001 C CNN
F 3 "" H 2500 3800 50  0001 C CNN
	1    2500 3800
	0    1    1    0   
$EndComp
$Comp
L Device:LED D?
U 1 1 61D8C85D
P 3000 3050
F 0 "D?" V 3039 2932 50  0000 R CNN
F 1 "LED" V 2948 2932 50  0000 R CNN
F 2 "" H 3000 3050 50  0001 C CNN
F 3 "~" H 3000 3050 50  0001 C CNN
	1    3000 3050
	0    -1   -1   0   
$EndComp
$Comp
L Device:R R?
U 1 1 61D8ED44
P 3000 2650
F 0 "R?" H 3070 2696 50  0000 L CNN
F 1 "R" H 3070 2605 50  0000 L CNN
F 2 "" V 2930 2650 50  0001 C CNN
F 3 "~" H 3000 2650 50  0001 C CNN
	1    3000 2650
	1    0    0    -1  
$EndComp
Connection ~ 3000 2500
Wire Wire Line
	3000 2500 3500 2500
Wire Wire Line
	3000 2800 3000 2900
Wire Wire Line
	3000 3200 3000 3300
Wire Wire Line
	2500 3800 3000 3800
Wire Wire Line
	3000 3800 3000 3700
$Comp
L Transistor_BJT:2N3904 Q0
U 1 1 61D93122
P 3100 3500
F 0 "Q0" H 3291 3546 50  0000 L CNN
F 1 "2N3904" H 3291 3455 50  0000 L CNN
F 2 "Package_TO_SOT_THT:TO-92_Inline" H 3300 3425 50  0001 L CIN
F 3 "https://www.onsemi.com/pub/Collateral/2N3903-D.PDF" H 3100 3500 50  0001 L CNN
	1    3100 3500
	-1   0    0    -1  
$EndComp
$Comp
L Relay:EC2-3NU K0
U 1 1 61D98E7F
P 7550 4100
F 0 "K0" V 6783 4100 50  0000 C CNN
F 1 "EC2-3NU" V 6874 4100 50  0000 C CNN
F 2 "Relay_THT:Relay_DPDT_Kemet_EC2" H 7550 4100 50  0001 C CNN
F 3 "https://content.kemet.com/datasheets/KEM_R7002_EC2_EE2.pdf" H 7550 4100 50  0001 C CNN
	1    7550 4100
	0    -1   1    0   
$EndComp
Wire Wire Line
	7950 3700 7850 3700
$Comp
L power:GND #PWR?
U 1 1 61D9DC52
P 7950 3700
F 0 "#PWR?" H 7950 3450 50  0001 C CNN
F 1 "GND" V 7955 3572 50  0000 R CNN
F 2 "" H 7950 3700 50  0001 C CNN
F 3 "" H 7950 3700 50  0001 C CNN
	1    7950 3700
	0    -1   -1   0   
$EndComp
Wire Wire Line
	7150 3700 7250 3700
$Comp
L power:VCC #PWR?
U 1 1 61DA04FF
P 7950 4500
F 0 "#PWR?" H 7950 4350 50  0001 C CNN
F 1 "VCC" V 7965 4628 50  0000 L CNN
F 2 "" H 7950 4500 50  0001 C CNN
F 3 "" H 7950 4500 50  0001 C CNN
	1    7950 4500
	0    1    1    0   
$EndComp
Wire Wire Line
	7850 4500 7950 4500
$Comp
L power:+3.3V #PWR?
U 1 1 61DA1F6A
P 7150 3700
F 0 "#PWR?" H 7150 3550 50  0001 C CNN
F 1 "+3.3V" V 7165 3828 50  0000 L CNN
F 2 "" H 7150 3700 50  0001 C CNN
F 3 "" H 7150 3700 50  0001 C CNN
	1    7150 3700
	0    -1   -1   0   
$EndComp
Wire Wire Line
	5000 2500 5500 2500
Connection ~ 5000 2500
Text Label 5500 2500 0    50   ~ 0
BATOUT
Text Label 7150 4400 2    50   ~ 0
BATOUT
$Comp
L power:+3.3V #PWR?
U 1 1 61DA32DE
P 7150 4600
F 0 "#PWR?" H 7150 4450 50  0001 C CNN
F 1 "+3.3V" V 7165 4728 50  0000 L CNN
F 2 "" H 7150 4600 50  0001 C CNN
F 3 "" H 7150 4600 50  0001 C CNN
	1    7150 4600
	0    -1   -1   0   
$EndComp
Wire Wire Line
	7150 4400 7250 4400
Wire Wire Line
	7150 4600 7250 4600
$EndSCHEMATC
