EESchema Schematic File Version 4
EELAYER 30 0
EELAYER END
$Descr A4 11693 8268
encoding utf-8
Sheet 1 2
Title "Watchtower clock"
Date "2022-01-01"
Rev "0.2"
Comp ""
Comment1 "(this is incomplete)"
Comment2 "Schematic of a BT controlled wall clock"
Comment3 ""
Comment4 ""
$EndDescr
Wire Wire Line
	9600 1600 10350 1600
$Comp
L power:VCC #PWR0103
U 1 1 61D60648
P 1550 1050
F 0 "#PWR0103" H 1550 900 50  0001 C CNN
F 1 "VCC" H 1565 1223 50  0000 C CNN
F 2 "" H 1550 1050 50  0001 C CNN
F 3 "" H 1550 1050 50  0001 C CNN
	1    1550 1050
	1    0    0    -1  
$EndComp
$Comp
L power:GND #PWR0104
U 1 1 61D3632D
P 3500 3050
F 0 "#PWR0104" H 3500 2800 50  0001 C CNN
F 1 "GND" H 3505 2877 50  0000 C CNN
F 2 "" H 3500 3050 50  0001 C CNN
F 3 "" H 3500 3050 50  0001 C CNN
	1    3500 3050
	0    1    1    0   
$EndComp
$Comp
L power:GND #PWR0105
U 1 1 61CD376B
P 1550 6150
F 0 "#PWR0105" H 1550 5900 50  0001 C CNN
F 1 "GND" H 1555 5977 50  0000 C CNN
F 2 "" H 1550 6150 50  0001 C CNN
F 3 "" H 1550 6150 50  0001 C CNN
	1    1550 6150
	1    0    0    -1  
$EndComp
Wire Wire Line
	1550 5800 1550 6150
Wire Wire Line
	2150 2400 2300 2400
Text Label 2300 2400 0    50   ~ 0
DB0
$Comp
L Connector_Generic:Conn_01x20 J3
U 1 1 61CDEE86
P 10550 2500
F 0 "J3" H 10630 2492 50  0000 L CNN
F 1 "LCD connector" H 10630 2401 50  0000 L CNN
F 2 "" H 10550 2500 50  0001 C CNN
F 3 "~" H 10550 2500 50  0001 C CNN
	1    10550 2500
	1    0    0    -1  
$EndComp
Wire Wire Line
	2150 2500 2300 2500
Wire Wire Line
	2150 2600 2300 2600
Wire Wire Line
	2150 2700 2300 2700
Wire Wire Line
	2150 2800 2300 2800
Wire Wire Line
	2150 3100 2300 3100
Wire Wire Line
	2150 3200 2300 3200
Wire Wire Line
	2150 3300 2300 3300
Wire Wire Line
	2150 4100 2300 4100
Wire Wire Line
	2150 4200 2300 4200
Wire Wire Line
	2150 4300 2300 4300
Wire Wire Line
	2150 4400 2300 4400
Text Label 2300 2500 0    50   ~ 0
DB1
Text Label 2300 2600 0    50   ~ 0
DB2
Text Label 2300 2700 0    50   ~ 0
DB3
Text Label 2300 2800 0    50   ~ 0
DB4
Text Label 2300 3100 0    50   ~ 0
DB5
Text Label 2300 3200 0    50   ~ 0
DB6
Text Label 2300 3300 0    50   ~ 0
DB7
Text Label 2300 4100 0    50   ~ 0
CS1
Text Label 2300 4200 0    50   ~ 0
CS2
Text Label 2300 4300 0    50   ~ 0
LCDRST
Text Label 2300 4400 0    50   ~ 0
LCDRW
$Comp
L power:VCC #PWR0106
U 1 1 61E402EA
P 850 1100
F 0 "#PWR0106" H 850 950 50  0001 C CNN
F 1 "VCC" H 865 1273 50  0000 C CNN
F 2 "" H 850 1100 50  0001 C CNN
F 3 "" H 850 1100 50  0001 C CNN
	1    850  1100
	-1   0    0    -1  
$EndComp
$Comp
L Jumper:Jumper_2_Bridged JP0
U 1 1 61CF2849
P 850 1550
F 0 "JP0" H 850 1745 50  0000 C CNN
F 1 "Jumper_2_Bridged" H 850 1654 50  0000 C CNN
F 2 "" H 850 1550 50  0001 C CNN
F 3 "~" H 850 1550 50  0001 C CNN
	1    850  1550
	0    1    -1   0   
$EndComp
Text Label 2300 4500 0    50   ~ 0
LCDDI
Text Label 2300 3500 0    50   ~ 0
MOSI
Text Label 2300 3600 0    50   ~ 0
MISO
$Comp
L power:VCC #PWR0108
U 1 1 61CD97A8
P 3400 750
F 0 "#PWR0108" H 3400 600 50  0001 C CNN
F 1 "VCC" H 3415 923 50  0000 C CNN
F 2 "" H 3400 750 50  0001 C CNN
F 3 "" H 3400 750 50  0001 C CNN
	1    3400 750 
	0    1    1    0   
$EndComp
$Comp
L power:GND #PWR0109
U 1 1 61CDD835
P 3300 2050
F 0 "#PWR0109" H 3300 1800 50  0001 C CNN
F 1 "GND" H 3305 1877 50  0000 C CNN
F 2 "" H 3300 2050 50  0001 C CNN
F 3 "" H 3300 2050 50  0001 C CNN
	1    3300 2050
	1    0    0    -1  
$EndComp
Text Label 2300 3700 0    50   ~ 0
SCK
$Comp
L power:+BATT #PWR0111
U 1 1 61CFCC78
P 3400 900
F 0 "#PWR0111" H 3400 750 50  0001 C CNN
F 1 "+BATT" V 3415 1028 50  0000 L CNN
F 2 "" H 3400 900 50  0001 C CNN
F 3 "" H 3400 900 50  0001 C CNN
	1    3400 900 
	0    1    1    0   
$EndComp
Wire Wire Line
	3300 750  3400 750 
Wire Wire Line
	3400 1050 3400 900 
Wire Wire Line
	3300 750  3300 1050
Wire Wire Line
	2150 4500 2300 4500
Wire Wire Line
	2150 4600 2300 4600
Text Label 2300 4600 0    50   ~ 0
LCD_ENABLE
Wire Wire Line
	2150 5500 2300 5500
Text Label 2300 5500 0    50   ~ 0
LCD_BACKLIGHT
$Comp
L Transistor_BJT:2N2219 Q0
U 1 1 61D7D3EF
P 10150 4200
F 0 "Q0" V 10478 4200 50  0000 C CNN
F 1 "2N2219" V 10387 4200 50  0000 C CNN
F 2 "Package_TO_SOT_THT:TO-39-3" H 10350 4125 50  0001 L CIN
F 3 "http://www.onsemi.com/pub_link/Collateral/2N2219-D.PDF" H 10150 4200 50  0001 L CNN
	1    10150 4200
	1    0    0    -1  
$EndComp
Wire Wire Line
	2150 5400 2300 5400
Text Label 2300 5400 0    50   ~ 0
LED0
Wire Wire Line
	2150 5300 2300 5300
Text Label 2300 5300 0    50   ~ 0
LED1
$Comp
L Device:LED D0
U 1 1 61DD9799
P 3650 2600
F 0 "D0" H 3643 2345 50  0000 C CNN
F 1 "LED" H 3643 2436 50  0000 C CNN
F 2 "" H 3650 2600 50  0001 C CNN
F 3 "~" H 3650 2600 50  0001 C CNN
	1    3650 2600
	-1   0    0    1   
$EndComp
$Comp
L power:GND #PWR0114
U 1 1 61DE0854
P 3950 2600
F 0 "#PWR0114" H 3950 2350 50  0001 C CNN
F 1 "GND" V 3955 2472 50  0000 R CNN
F 2 "" H 3950 2600 50  0001 C CNN
F 3 "" H 3950 2600 50  0001 C CNN
	1    3950 2600
	0    -1   -1   0   
$EndComp
Text Label 3000 2600 0    50   ~ 0
LED0
$Comp
L Connector_Generic:Conn_01x02 J2
U 1 1 61DE159A
P 5100 2450
F 0 "J2" H 5180 2442 50  0000 L CNN
F 1 "Strobe connector" H 5180 2351 50  0000 L CNN
F 2 "" H 5100 2450 50  0001 C CNN
F 3 "~" H 5100 2450 50  0001 C CNN
	1    5100 2450
	1    0    0    -1  
$EndComp
$Comp
L power:GND #PWR0115
U 1 1 61DE2277
P 4900 2700
F 0 "#PWR0115" H 4900 2450 50  0001 C CNN
F 1 "GND" H 4905 2527 50  0000 C CNN
F 2 "" H 4900 2700 50  0001 C CNN
F 3 "" H 4900 2700 50  0001 C CNN
	1    4900 2700
	1    0    0    -1  
$EndComp
Wire Wire Line
	4900 2550 4900 2700
Text Notes 3500 7750 0    50   ~ 0
Current consumption:\n1. LCD - 10mA\n2. Backlight - 100mA\n3. U0 (MCU + pins) - max 1.1A?\n4. U1 (clock) - 100mA\n5. U2 (flash) - 10mA \n6. U3 (audio) - 80mA\n7. HC05 - 50mA\n8. SD Card - 50mA
Text Notes 4900 7600 0    50   ~ 0
TODO:\n1. audio codec CVCC/AVCC\n(according to the docs, CVCC\nmust not exceed app. 1.7V???) \n2. add two buttons (alarm + ?)\n3. power circuit\n4. temperature sensor ADC
Wire Wire Line
	2150 3000 2300 3000
Text Label 2300 3000 0    50   ~ 0
RTC_OUTPUT
Text Label 2300 3400 0    50   ~ 0
SS
Wire Wire Line
	2150 3400 2300 3400
Wire Wire Line
	2150 3500 2300 3500
Wire Wire Line
	2150 3600 2300 3600
Wire Wire Line
	2150 3700 2300 3700
Wire Wire Line
	950  2100 850  2100
Wire Wire Line
	850  2100 850  1750
Wire Wire Line
	850  1350 850  1100
$Comp
L Connector_Generic:Conn_01x04 J1
U 1 1 61F8EDE5
P 3850 3150
F 0 "J1" H 3930 3142 50  0000 L CNN
F 1 "UART port" H 3930 3051 50  0000 L CNN
F 2 "" H 3850 3150 50  0001 C CNN
F 3 "~" H 3850 3150 50  0001 C CNN
	1    3850 3150
	1    0    0    -1  
$EndComp
Wire Wire Line
	3300 1850 3300 1950
Text Label 3000 3900 0    50   ~ 0
SCL
Text Label 3000 4000 0    50   ~ 0
SDA
Wire Wire Line
	2900 1250 2750 1250
Wire Wire Line
	2900 1350 2750 1350
Text Label 2750 1250 0    50   ~ 0
SCL
Text Label 2750 1350 0    50   ~ 0
SDA
Text Label 2450 1550 0    50   ~ 0
RTC_OUTPUT
Wire Wire Line
	2450 1550 2900 1550
$Comp
L Timer:MCP7940N-xP U?
U 1 1 61FF5F8D
P 3300 1450
F 0 "U?" H 3300 961 50  0000 C CNN
F 1 "MCP7940N-xP" H 3300 870 50  0000 C CNN
F 2 "" H 3300 1450 50  0001 C CNN
F 3 "http://ww1.microchip.com/downloads/en/DeviceDoc/20005010F.pdf" H 3300 1450 50  0001 C CNN
	1    3300 1450
	1    0    0    -1  
$EndComp
$Comp
L Device:R R0
U 1 1 61FFA544
P 2700 3550
F 0 "R0" H 2770 3596 50  0000 L CNN
F 1 "1kΩ" H 2770 3505 50  0000 L CNN
F 2 "" V 2630 3550 50  0001 C CNN
F 3 "~" H 2700 3550 50  0001 C CNN
	1    2700 3550
	1    0    0    -1  
$EndComp
$Comp
L Device:R R1
U 1 1 61FFC10A
P 2900 3550
F 0 "R1" H 2970 3596 50  0000 L CNN
F 1 "1kΩ" H 2970 3505 50  0000 L CNN
F 2 "" V 2830 3550 50  0001 C CNN
F 3 "~" H 2900 3550 50  0001 C CNN
	1    2900 3550
	1    0    0    -1  
$EndComp
Wire Wire Line
	2700 3400 2800 3400
Connection ~ 2800 3400
Wire Wire Line
	2800 3400 2900 3400
Wire Wire Line
	2700 3700 2700 4000
Wire Wire Line
	2900 3700 2900 3900
Wire Wire Line
	3700 1350 3900 1350
Wire Wire Line
	3700 1550 3900 1550
$Comp
L Device:C C2
U 1 1 6203F969
P 4450 1350
F 0 "C2" V 4198 1350 50  0000 C CNN
F 1 "10pF" V 4289 1350 50  0000 C CNN
F 2 "" H 4488 1200 50  0001 C CNN
F 3 "~" H 4450 1350 50  0001 C CNN
	1    4450 1350
	0    1    1    0   
$EndComp
$Comp
L Device:C C3
U 1 1 62040D6E
P 4450 1550
F 0 "C3" V 4600 1550 50  0000 C CNN
F 1 "10pF" V 4700 1550 50  0000 C CNN
F 2 "" H 4488 1400 50  0001 C CNN
F 3 "~" H 4450 1550 50  0001 C CNN
	1    4450 1550
	0    1    1    0   
$EndComp
$Comp
L Device:Crystal_Small Y1
U 1 1 62038040
P 3900 1450
F 0 "Y1" V 3854 1538 50  0000 L CNN
F 1 "32.768kHz" V 3945 1538 50  0000 L CNN
F 2 "" H 3900 1450 50  0001 C CNN
F 3 "~" H 3900 1450 50  0001 C CNN
	1    3900 1450
	0    1    1    0   
$EndComp
Wire Wire Line
	3900 1350 4300 1350
Connection ~ 3900 1350
Wire Wire Line
	3900 1550 4300 1550
Connection ~ 3900 1550
Wire Wire Line
	4600 1350 4600 1550
Wire Wire Line
	4600 1950 3300 1950
Connection ~ 4600 1550
Wire Wire Line
	4600 1550 4600 1950
Connection ~ 3300 1950
Wire Wire Line
	3300 1950 3300 2050
$Comp
L Device:C C1
U 1 1 6205133A
P 850 3000
F 0 "C1" H 850 2900 50  0000 R CNN
F 1 "10pF" H 850 3100 50  0000 R CNN
F 2 "" H 888 2850 50  0001 C CNN
F 3 "~" H 850 3000 50  0001 C CNN
	1    850  3000
	-1   0    0    1   
$EndComp
$Comp
L Device:C C0
U 1 1 62051340
P 650 3000
F 0 "C0" H 650 2900 50  0000 R CNN
F 1 "10pF" H 650 3100 50  0000 R CNN
F 2 "" H 688 2850 50  0001 C CNN
F 3 "~" H 650 3000 50  0001 C CNN
	1    650  3000
	-1   0    0    1   
$EndComp
$Comp
L Device:Crystal_Small Y0
U 1 1 62051346
P 750 2650
F 0 "Y0" H 750 2425 50  0000 C CNN
F 1 "7.37Mhz" H 750 2516 50  0000 C CNN
F 2 "" H 750 2650 50  0001 C CNN
F 3 "~" H 750 2650 50  0001 C CNN
	1    750  2650
	-1   0    0    1   
$EndComp
Wire Wire Line
	850  2650 850  2850
Connection ~ 850  2650
Wire Wire Line
	650  2650 650  2850
Connection ~ 650  2650
Wire Wire Line
	950  2500 850  2500
Wire Wire Line
	850  2500 850  2650
Wire Wire Line
	650  2300 950  2300
Wire Wire Line
	650  2300 650  2650
$Comp
L power:GND #PWR0101
U 1 1 62066343
P 650 3750
F 0 "#PWR0101" H 650 3500 50  0001 C CNN
F 1 "GND" H 655 3577 50  0000 C CNN
F 2 "" H 650 3750 50  0001 C CNN
F 3 "" H 650 3750 50  0001 C CNN
	1    650  3750
	1    0    0    -1  
$EndComp
Wire Wire Line
	850  3150 650  3150
Connection ~ 650  3150
$Comp
L power:VCC #PWR0118
U 1 1 61DA9A5E
P 2800 3200
F 0 "#PWR0118" H 2800 3050 50  0001 C CNN
F 1 "VCC" H 2815 3373 50  0000 C CNN
F 2 "" H 2800 3200 50  0001 C CNN
F 3 "" H 2800 3200 50  0001 C CNN
	1    2800 3200
	1    0    0    -1  
$EndComp
Wire Wire Line
	2800 3200 2800 3400
Wire Wire Line
	2150 4800 2300 4800
Wire Wire Line
	2150 4900 2300 4900
Text Label 2300 4800 0    50   ~ 0
RX0
Text Label 2300 4900 0    50   ~ 0
TX0
Wire Wire Line
	3650 3150 3500 3150
Wire Wire Line
	3650 3250 3500 3250
Text Label 3500 3150 0    50   ~ 0
RX0
Text Label 3500 3250 0    50   ~ 0
TX0
Wire Wire Line
	3650 3050 3500 3050
Wire Wire Line
	3500 3350 3650 3350
Wire Wire Line
	2900 3900 3000 3900
Connection ~ 2900 3900
Wire Wire Line
	2700 4000 3000 4000
Connection ~ 2700 4000
Wire Wire Line
	10250 3400 10350 3400
$Comp
L power:VCC #PWR0123
U 1 1 61DBC3EA
P 3500 3350
F 0 "#PWR0123" H 3500 3200 50  0001 C CNN
F 1 "VCC" H 3515 3523 50  0000 C CNN
F 2 "" H 3500 3350 50  0001 C CNN
F 3 "" H 3500 3350 50  0001 C CNN
	1    3500 3350
	0    -1   -1   0   
$EndComp
Wire Wire Line
	10350 3500 10250 3500
Wire Wire Line
	10250 3500 10250 3600
Wire Wire Line
	10250 4400 10250 4500
$Comp
L power:GND #PWR0124
U 1 1 61DE0422
P 10250 4500
F 0 "#PWR0124" H 10250 4250 50  0001 C CNN
F 1 "GND" H 10255 4327 50  0000 C CNN
F 2 "" H 10250 4500 50  0001 C CNN
F 3 "" H 10250 4500 50  0001 C CNN
	1    10250 4500
	-1   0    0    -1  
$EndComp
Wire Wire Line
	9950 4200 9850 4200
Text Label 9850 4200 0    50   ~ 0
LCD_BACKLIGHT
Wire Wire Line
	10350 1700 10250 1700
$Comp
L power:GND #PWR0125
U 1 1 61DEE6BD
P 10250 1200
F 0 "#PWR0125" H 10250 950 50  0001 C CNN
F 1 "GND" H 10255 1027 50  0000 C CNN
F 2 "" H 10250 1200 50  0001 C CNN
F 3 "" H 10250 1200 50  0001 C CNN
	1    10250 1200
	1    0    0    1   
$EndComp
Wire Wire Line
	9750 1700 9750 3300
Wire Wire Line
	9600 1300 9600 1600
Wire Wire Line
	9500 1700 9750 1700
Wire Wire Line
	9500 1550 9500 1700
Wire Wire Line
	9350 1300 9600 1300
Wire Wire Line
	9350 1400 9350 1300
$Comp
L Device:R_POT RV0
U 1 1 61D1CF98
P 9350 1550
F 0 "RV0" H 9281 1596 50  0000 R CNN
F 1 "20kΩ" H 9281 1505 50  0000 R CNN
F 2 "" H 9350 1550 50  0001 C CNN
F 3 "~" H 9350 1550 50  0001 C CNN
	1    9350 1550
	1    0    0    -1  
$EndComp
Wire Wire Line
	10350 1800 9350 1800
Wire Wire Line
	9350 1800 9350 1700
$Comp
L Device:R R2
U 1 1 61E1160E
P 10250 3750
F 0 "R2" H 10250 3700 50  0000 C CNN
F 1 "15Ω" H 10150 3700 50  0000 R TNN
F 2 "" V 10180 3750 50  0001 C CNN
F 3 "~" H 10250 3750 50  0001 C CNN
	1    10250 3750
	-1   0    0    1   
$EndComp
Wire Wire Line
	10250 3900 10250 4000
$Comp
L Connector:Micro_SD_Card J3
U 1 1 61F0BD8A
P 6550 1550
F 0 "J3" H 6500 2267 50  0000 C CNN
F 1 "Micro_SD_Card" H 6500 2176 50  0000 C CNN
F 2 "" H 7700 1850 50  0001 C CNN
F 3 "http://katalog.we-online.de/em/datasheet/693072010801.pdf" H 6550 1550 50  0001 C CNN
	1    6550 1550
	1    0    0    -1  
$EndComp
$Comp
L power:GND #PWR0126
U 1 1 61E5A3BE
P 7350 2250
F 0 "#PWR0126" H 7350 2000 50  0001 C CNN
F 1 "GND" H 7355 2077 50  0000 C CNN
F 2 "" H 7350 2250 50  0001 C CNN
F 3 "" H 7350 2250 50  0001 C CNN
	1    7350 2250
	-1   0    0    -1  
$EndComp
Wire Wire Line
	7350 2150 7350 2250
NoConn ~ 5650 1250
NoConn ~ 5650 1950
$Comp
L power:VCC #PWR0127
U 1 1 61E7483A
P 5350 1550
F 0 "#PWR0127" H 5350 1400 50  0001 C CNN
F 1 "VCC" H 5365 1723 50  0000 C CNN
F 2 "" H 5350 1550 50  0001 C CNN
F 3 "" H 5350 1550 50  0001 C CNN
	1    5350 1550
	0    -1   -1   0   
$EndComp
$Comp
L power:GND #PWR0128
U 1 1 61E75513
P 5350 1750
F 0 "#PWR0128" H 5350 1500 50  0001 C CNN
F 1 "GND" H 5355 1577 50  0000 C CNN
F 2 "" H 5350 1750 50  0001 C CNN
F 3 "" H 5350 1750 50  0001 C CNN
	1    5350 1750
	0    1    1    0   
$EndComp
Wire Wire Line
	5650 1650 5450 1650
Wire Wire Line
	5450 1850 5650 1850
Wire Wire Line
	5650 1450 5450 1450
Wire Wire Line
	5650 1350 5450 1350
Text Label 5450 1350 0    50   ~ 0
SS
Text Label 5450 1650 0    50   ~ 0
SCK
Text Label 5450 1850 0    50   ~ 0
MISO
Text Label 5450 1450 0    50   ~ 0
MOSI
Wire Wire Line
	5350 1550 5650 1550
Wire Wire Line
	5350 1750 5650 1750
Wire Wire Line
	2150 4000 2700 4000
Wire Wire Line
	2150 3900 2900 3900
$Comp
L MCU_Microchip_ATmega:ATmega1284-AU U0
U 1 1 61FB319D
P 1550 3800
F 0 "U0" H 1550 1711 50  0000 C CNN
F 1 "ATmega1284-AU" H 1550 1620 50  0000 C CNN
F 2 "Package_QFP:TQFP-44_10x10mm_P0.8mm" H 1550 3800 50  0001 C CIN
F 3 "http://ww1.microchip.com/downloads/en/DeviceDoc/Atmel-8272-8-bit-AVR-microcontroller-ATmega164A_PA-324A_PA-644A_PA-1284_P_datasheet.pdf" H 1550 3800 50  0001 C CNN
	1    1550 3800
	1    0    0    -1  
$EndComp
$Comp
L wtwr_clock-audio:VS1053 U3
U 1 1 61F6CB84
P 7800 4150
F 0 "U3" H 7700 4250 50  0000 L CNN
F 1 "VS1053" H 7650 4150 50  0000 L CNN
F 2 "" H 7800 4150 50  0001 C CNN
F 3 "" H 7800 4150 50  0001 C CNN
	1    7800 4150
	1    0    0    -1  
$EndComp
NoConn ~ 6800 3600
NoConn ~ 6800 3700
NoConn ~ 7450 5150
NoConn ~ 8800 4000
NoConn ~ 8350 3150
NoConn ~ 8250 3150
NoConn ~ 8050 3150
NoConn ~ 7950 3150
NoConn ~ 7850 3150
NoConn ~ 7750 3150
NoConn ~ 7550 3150
NoConn ~ 7350 3150
NoConn ~ 7250 3150
Wire Wire Line
	6800 4600 6600 4600
Wire Wire Line
	6800 4700 6600 4700
Wire Wire Line
	8800 3800 9000 3800
Wire Wire Line
	8800 3900 9000 3900
Wire Wire Line
	6800 4400 6600 4400
Wire Wire Line
	6800 4500 6600 4500
Text Label 6600 4400 0    50   ~ 0
VSNC
Text Label 6600 4500 0    50   ~ 0
VSNC
Text Label 6600 4600 0    50   ~ 0
VSNC
Text Label 6600 4700 0    50   ~ 0
VSNC
Text Label 9000 3800 0    50   ~ 0
VSNC
Text Label 9000 3900 0    50   ~ 0
VSNC
Text Label 9000 3600 0    50   ~ 0
VSNC
Wire Wire Line
	8800 3600 9000 3600
$Comp
L power:GND #PWR?
U 1 1 620910E5
P 6100 5400
F 0 "#PWR?" H 6100 5150 50  0001 C CNN
F 1 "GND" H 6105 5227 50  0000 C CNN
F 2 "" H 6100 5400 50  0001 C CNN
F 3 "" H 6100 5400 50  0001 C CNN
	1    6100 5400
	1    0    0    -1  
$EndComp
$Comp
L Device:R R4
U 1 1 620913C3
P 6100 5150
F 0 "R4" V 6100 5100 50  0000 L CNN
F 1 "100kΩ" V 6000 5100 50  0000 L CNN
F 2 "" V 6030 5150 50  0001 C CNN
F 3 "~" H 6100 5150 50  0001 C CNN
	1    6100 5150
	1    0    0    -1  
$EndComp
Wire Wire Line
	6100 5400 6100 5300
Wire Wire Line
	6100 4900 6100 5000
Text Label 6100 4900 0    50   ~ 0
VSNC
$Comp
L power:GND #PWR?
U 1 1 620A3820
P 9000 3700
F 0 "#PWR?" H 9000 3450 50  0001 C CNN
F 1 "GND" V 9005 3572 50  0000 R CNN
F 2 "" H 9000 3700 50  0001 C CNN
F 3 "" H 9000 3700 50  0001 C CNN
	1    9000 3700
	0    -1   -1   0   
$EndComp
$Comp
L power:GND #PWR?
U 1 1 620A40C6
P 7950 5350
F 0 "#PWR?" H 7950 5100 50  0001 C CNN
F 1 "GND" H 7955 5177 50  0000 C CNN
F 2 "" H 7950 5350 50  0001 C CNN
F 3 "" H 7950 5350 50  0001 C CNN
	1    7950 5350
	1    0    0    -1  
$EndComp
$Comp
L power:GND #PWR?
U 1 1 620A4B76
P 8050 5350
F 0 "#PWR?" H 8050 5100 50  0001 C CNN
F 1 "GND" H 8055 5177 50  0000 C CNN
F 2 "" H 8050 5350 50  0001 C CNN
F 3 "" H 8050 5350 50  0001 C CNN
	1    8050 5350
	1    0    0    -1  
$EndComp
$Comp
L power:GND #PWR?
U 1 1 620A4D37
P 8150 5350
F 0 "#PWR?" H 8150 5100 50  0001 C CNN
F 1 "GND" H 8155 5177 50  0000 C CNN
F 2 "" H 8150 5350 50  0001 C CNN
F 3 "" H 8150 5350 50  0001 C CNN
	1    8150 5350
	1    0    0    -1  
$EndComp
$Comp
L power:GND #PWR?
U 1 1 620A4F87
P 7550 5350
F 0 "#PWR?" H 7550 5100 50  0001 C CNN
F 1 "GND" H 7555 5177 50  0000 C CNN
F 2 "" H 7550 5350 50  0001 C CNN
F 3 "" H 7550 5350 50  0001 C CNN
	1    7550 5350
	1    0    0    -1  
$EndComp
Wire Wire Line
	7550 5350 7550 5150
Wire Wire Line
	7950 5350 7950 5150
Wire Wire Line
	8050 5350 8050 5150
Wire Wire Line
	8150 5350 8150 5150
Wire Wire Line
	8800 3700 9000 3700
$Comp
L Device:Crystal_Small Y3
U 1 1 620CE826
P 7650 5850
F 0 "Y3" V 7650 5950 50  0000 L CNN
F 1 "12.288MHz" V 7650 5300 50  0000 L CNN
F 2 "" H 7650 5850 50  0001 C CNN
F 3 "~" H 7650 5850 50  0001 C CNN
	1    7650 5850
	0    -1   -1   0   
$EndComp
$Comp
L Device:C C4
U 1 1 620E0A24
P 7350 5750
F 0 "C4" V 7098 5750 50  0000 C CNN
F 1 "33pF" V 7189 5750 50  0000 C CNN
F 2 "" H 7388 5600 50  0001 C CNN
F 3 "~" H 7350 5750 50  0001 C CNN
	1    7350 5750
	0    1    1    0   
$EndComp
$Comp
L Device:C C5
U 1 1 620E13FC
P 7350 5950
F 0 "C5" V 7600 5950 50  0000 C CNN
F 1 "33pF" V 7500 5950 50  0000 C CNN
F 2 "" H 7388 5800 50  0001 C CNN
F 3 "~" H 7350 5950 50  0001 C CNN
	1    7350 5950
	0    1    1    0   
$EndComp
$Comp
L power:GND #PWR?
U 1 1 620E1BA5
P 7000 6050
F 0 "#PWR?" H 7000 5800 50  0001 C CNN
F 1 "GND" H 7005 5877 50  0000 C CNN
F 2 "" H 7000 6050 50  0001 C CNN
F 3 "" H 7000 6050 50  0001 C CNN
	1    7000 6050
	1    0    0    -1  
$EndComp
Wire Wire Line
	7000 6050 7200 6050
Wire Wire Line
	7200 6050 7200 5950
Connection ~ 7200 5950
Wire Wire Line
	7200 5950 7200 5750
Wire Wire Line
	7500 5750 7550 5750
Wire Wire Line
	7500 5950 7650 5950
Connection ~ 7650 5950
$Comp
L Device:R R5
U 1 1 62121738
P 7700 6150
F 0 "R5" V 7700 6100 50  0000 L CNN
F 1 "1MΩ" V 7600 6100 50  0000 L CNN
F 2 "" V 7630 6150 50  0001 C CNN
F 3 "~" H 7700 6150 50  0001 C CNN
	1    7700 6150
	0    1    1    0   
$EndComp
Wire Wire Line
	7550 6150 7550 5750
Connection ~ 7550 5750
Wire Wire Line
	7550 5750 7650 5750
Wire Wire Line
	7850 6150 7850 5950
NoConn ~ 8800 4500
NoConn ~ 8800 4600
Wire Wire Line
	8800 4200 9000 4200
Wire Wire Line
	8800 4300 9000 4300
Wire Wire Line
	8800 4400 9000 4400
Wire Wire Line
	8250 5150 8250 5350
Text Label 8250 5350 0    50   ~ 0
SS
Text Label 9000 4200 0    50   ~ 0
MISO
Text Label 9000 4300 0    50   ~ 0
MOSI
Text Label 9000 4400 0    50   ~ 0
SCK
Wire Wire Line
	8800 4700 9000 4700
Text Label 9000 4700 0    50   ~ 0
VSNC
Wire Wire Line
	2150 5100 2300 5100
Wire Wire Line
	2150 5200 2300 5200
Text Label 6500 4300 0    50   ~ 0
VS_DREQ
Wire Wire Line
	6500 4300 6800 4300
Text Label 2300 5100 0    50   ~ 0
VS_DREQ
Text Label 7250 5550 1    50   ~ 0
VS_BSYNC
Wire Wire Line
	7250 5150 7250 5550
Text Label 2300 5200 0    50   ~ 0
VS_BSYNC
Wire Wire Line
	7650 5950 7750 5950
Wire Wire Line
	7650 5750 7650 5150
Connection ~ 7650 5750
Wire Wire Line
	7750 5950 7750 5150
Connection ~ 7750 5950
Wire Wire Line
	7750 5950 7850 5950
NoConn ~ 7350 5150
NoConn ~ 7850 5150
NoConn ~ 6800 4100
$Comp
L power:GND #PWR?
U 1 1 62234A61
P 6600 3900
F 0 "#PWR?" H 6600 3650 50  0001 C CNN
F 1 "GND" V 6605 3772 50  0000 R CNN
F 2 "" H 6600 3900 50  0001 C CNN
F 3 "" H 6600 3900 50  0001 C CNN
	1    6600 3900
	0    1    1    0   
$EndComp
Wire Wire Line
	6600 3900 6800 3900
Text Label 9850 1900 0    50   ~ 0
DB0
Text Label 9850 2000 0    50   ~ 0
DB1
Text Label 9850 2100 0    50   ~ 0
DB2
Text Label 9850 2200 0    50   ~ 0
DB3
Text Label 9850 2300 0    50   ~ 0
DB4
Text Label 9850 2400 0    50   ~ 0
DB5
Text Label 9850 2500 0    50   ~ 0
DB6
Text Label 9850 2600 0    50   ~ 0
DB7
Text Label 9850 2700 0    50   ~ 0
CS1
Text Label 9850 2800 0    50   ~ 0
CS2
Text Label 9850 2900 0    50   ~ 0
LCDRST
Text Label 9850 3000 0    50   ~ 0
LCDRW
Text Label 9850 3100 0    50   ~ 0
LCD_ENABLE
Text Label 9850 3200 0    50   ~ 0
LCDDI
Wire Wire Line
	9850 1900 10350 1900
Wire Wire Line
	9850 2000 10350 2000
Wire Wire Line
	9850 2100 10350 2100
Wire Wire Line
	9850 2200 10350 2200
Wire Wire Line
	9850 2300 10350 2300
Wire Wire Line
	9850 2400 10350 2400
Wire Wire Line
	9850 2500 10350 2500
Wire Wire Line
	9850 2600 10350 2600
Wire Wire Line
	9850 2700 10350 2700
Wire Wire Line
	9850 2800 10350 2800
Wire Wire Line
	9850 2900 10350 2900
Wire Wire Line
	9850 3000 10350 3000
Wire Wire Line
	9850 3100 10350 3100
Wire Wire Line
	9850 3200 10350 3200
Wire Wire Line
	6800 4200 6600 4200
Wire Wire Line
	9750 3300 10350 3300
Wire Wire Line
	8800 4100 9000 4100
Wire Wire Line
	8350 5150 8350 5350
Text Label 6600 4200 0    50   ~ 0
VSVDD
Text Label 8350 5350 0    50   ~ 0
VSVDD
Text Label 9000 4100 0    50   ~ 0
VSVDD
$Comp
L Device:C C8
U 1 1 62337A1B
P 5350 5150
F 0 "C8" H 5350 4950 50  0000 C CNN
F 1 "100nF" H 5350 5400 50  0000 C CNN
F 2 "" H 5388 5000 50  0001 C CNN
F 3 "~" H 5350 5150 50  0001 C CNN
	1    5350 5150
	-1   0    0    1   
$EndComp
$Comp
L Device:C C7
U 1 1 6233839C
P 5150 5150
F 0 "C7" H 5150 4950 50  0000 C CNN
F 1 "100nF" H 5150 5500 50  0000 C CNN
F 2 "" H 5188 5000 50  0001 C CNN
F 3 "~" H 5150 5150 50  0001 C CNN
	1    5150 5150
	-1   0    0    1   
$EndComp
$Comp
L Device:C C5
U 1 1 62338CCF
P 4750 5150
F 0 "C5" H 4750 4950 50  0000 C TNN
F 1 "100nF" H 4750 5450 50  0000 C BNN
F 2 "" H 4788 5000 50  0001 C CNN
F 3 "~" H 4750 5150 50  0001 C CNN
	1    4750 5150
	-1   0    0    1   
$EndComp
$Comp
L Device:C C6
U 1 1 6233869A
P 4950 5150
F 0 "C6" H 4950 4950 50  0000 C CNN
F 1 "100nF" H 4950 5400 50  0000 C CNN
F 2 "" H 4988 5000 50  0001 C CNN
F 3 "~" H 4950 5150 50  0001 C CNN
	1    4950 5150
	-1   0    0    1   
$EndComp
$Comp
L Device:CP C9
U 1 1 623420AF
P 4550 5150
F 0 "C9" H 4500 5350 50  0000 L CNN
F 1 "10uF" H 4450 4900 50  0000 L CNN
F 2 "" H 4588 5000 50  0001 C CNN
F 3 "~" H 4550 5150 50  0001 C CNN
	1    4550 5150
	1    0    0    -1  
$EndComp
Wire Wire Line
	5350 5000 5150 5000
Connection ~ 4750 5000
Wire Wire Line
	4750 5000 4550 5000
Connection ~ 4950 5000
Wire Wire Line
	4950 5000 4750 5000
Connection ~ 5150 5000
Wire Wire Line
	5150 5000 4950 5000
Wire Wire Line
	4550 5300 4750 5300
Connection ~ 4750 5300
Wire Wire Line
	4750 5300 4950 5300
Connection ~ 4950 5300
Wire Wire Line
	4950 5300 5150 5300
Connection ~ 5150 5300
Wire Wire Line
	5150 5300 5350 5300
Wire Wire Line
	5350 5000 5550 5000
Connection ~ 5350 5000
Text Label 5550 5000 0    50   ~ 0
VSVDD
$Comp
L power:GND #PWR?
U 1 1 623563FB
P 4550 5550
F 0 "#PWR?" H 4550 5300 50  0001 C CNN
F 1 "GND" H 4555 5377 50  0000 C CNN
F 2 "" H 4550 5550 50  0001 C CNN
F 3 "" H 4550 5550 50  0001 C CNN
	1    4550 5550
	1    0    0    -1  
$EndComp
Wire Wire Line
	4550 5550 4550 5300
Connection ~ 4550 5300
Wire Wire Line
	4550 5000 4550 4700
Connection ~ 4550 5000
$Comp
L power:VCC #PWR?
U 1 1 623652D0
P 4550 4700
F 0 "#PWR?" H 4550 4550 50  0001 C CNN
F 1 "VCC" H 4565 4873 50  0000 C CNN
F 2 "" H 4550 4700 50  0001 C CNN
F 3 "" H 4550 4700 50  0001 C CNN
	1    4550 4700
	1    0    0    -1  
$EndComp
Text Label 6600 4000 0    50   ~ 0
VSVDD
Wire Wire Line
	6600 4000 6800 4000
Wire Wire Line
	6800 3800 6600 3800
Text Label 6600 3800 0    50   ~ 0
VSRST
Text Label 3050 5000 0    50   ~ 0
VSRST
$Comp
L Device:R R3
U 1 1 623935A7
P 3050 5350
F 0 "R3" V 3050 5300 50  0000 L CNN
F 1 "100kΩ" V 2950 5300 50  0000 L CNN
F 2 "" V 2980 5350 50  0001 C CNN
F 3 "~" H 3050 5350 50  0001 C CNN
	1    3050 5350
	1    0    0    -1  
$EndComp
Wire Wire Line
	2150 5000 3050 5000
Wire Wire Line
	3050 5000 3050 5200
Wire Wire Line
	3050 5500 3050 5600
$Comp
L power:GND #PWR?
U 1 1 623B1853
P 3050 5600
F 0 "#PWR?" H 3050 5350 50  0001 C CNN
F 1 "GND" H 3055 5427 50  0000 C CNN
F 2 "" H 3050 5600 50  0001 C CNN
F 3 "" H 3050 5600 50  0001 C CNN
	1    3050 5600
	1    0    0    -1  
$EndComp
$Comp
L power:Earth #PWR?
U 1 1 623BE07E
P 7650 2650
F 0 "#PWR?" H 7650 2400 50  0001 C CNN
F 1 "Earth" H 7650 2500 50  0001 C CNN
F 2 "" H 7650 2650 50  0001 C CNN
F 3 "~" H 7650 2650 50  0001 C CNN
	1    7650 2650
	-1   0    0    1   
$EndComp
$Comp
L Device:C C9
U 1 1 623C02FF
P 7650 2900
F 0 "C9" H 7500 2800 50  0000 C CNN
F 1 "10uF" H 7500 3000 50  0000 C CNN
F 2 "" H 7688 2750 50  0001 C CNN
F 3 "~" H 7650 2900 50  0001 C CNN
	1    7650 2900
	-1   0    0    1   
$EndComp
Wire Wire Line
	7650 3150 7650 3050
Wire Wire Line
	7650 2750 7650 2650
$Comp
L Device:Speaker LS0
U 1 1 623E14AA
P 10450 5150
F 0 "LS0" H 10620 5146 50  0000 L CNN
F 1 "Speaker" H 10620 5055 50  0000 L CNN
F 2 "" H 10450 4950 50  0001 C CNN
F 3 "~" H 10440 5100 50  0001 C CNN
	1    10450 5150
	1    0    0    -1  
$EndComp
Wire Wire Line
	7450 3150 7450 2950
Wire Wire Line
	8150 3150 8150 2950
Text Label 7450 2950 2    50   ~ 0
VS_LEFT
Text Label 8150 2950 0    50   ~ 0
VS_RIGHT
Text Label 9400 4950 0    50   ~ 0
VS_LEFT
Text Label 9400 5150 0    50   ~ 0
VS_RIGHT
$Comp
L power:Earth #PWR?
U 1 1 62401E1E
P 9950 6150
F 0 "#PWR?" H 9950 5900 50  0001 C CNN
F 1 "Earth" H 9950 6000 50  0001 C CNN
F 2 "" H 9950 6150 50  0001 C CNN
F 3 "~" H 9950 6150 50  0001 C CNN
	1    9950 6150
	1    0    0    -1  
$EndComp
$Comp
L Device:R R8
U 1 1 62403B15
P 9950 5400
F 0 "R8" V 9950 5350 50  0000 L CNN
F 1 "1MΩ" V 9850 5350 50  0000 L CNN
F 2 "" V 9880 5400 50  0001 C CNN
F 3 "~" H 9950 5400 50  0001 C CNN
	1    9950 5400
	-1   0    0    1   
$EndComp
$Comp
L Device:C C11
U 1 1 6240F8BE
P 9950 5800
F 0 "C11" H 9750 5750 50  0000 C CNN
F 1 "33pF" H 9750 5850 50  0000 C CNN
F 2 "" H 9988 5650 50  0001 C CNN
F 3 "~" H 9950 5800 50  0001 C CNN
	1    9950 5800
	-1   0    0    1   
$EndComp
Wire Wire Line
	9950 5950 9950 6150
Connection ~ 9950 5950
Wire Wire Line
	9950 5650 9950 5550
Wire Wire Line
	9750 4950 9750 5150
Wire Wire Line
	9400 4950 9750 4950
Wire Wire Line
	9750 5150 9950 5150
Connection ~ 9750 5150
Connection ~ 9950 5150
Wire Wire Line
	9950 5150 9950 5250
Wire Wire Line
	10250 5950 10250 5250
Wire Wire Line
	9950 5150 10250 5150
Wire Wire Line
	9950 5950 10250 5950
$Comp
L Device:C C12
U 1 1 6247C4F5
P 850 3500
F 0 "C12" H 850 3400 50  0000 R CNN
F 1 "0.1uF" H 850 3600 50  0000 R CNN
F 2 "" H 888 3350 50  0001 C CNN
F 3 "~" H 850 3500 50  0001 C CNN
	1    850  3500
	-1   0    0    1   
$EndComp
Wire Wire Line
	950  2700 950  3350
Wire Wire Line
	950  3350 850  3350
Wire Wire Line
	850  3650 650  3650
Wire Wire Line
	650  3650 650  3750
Wire Wire Line
	650  3150 650  3650
Connection ~ 650  3650
$Comp
L Device:C C13
U 1 1 62498CD3
P 1800 1600
F 0 "C13" V 1950 1650 50  0000 R CNN
F 1 "0.1uF" V 1650 1700 50  0000 R CNN
F 2 "" H 1838 1450 50  0001 C CNN
F 3 "~" H 1800 1600 50  0001 C CNN
	1    1800 1600
	0    -1   -1   0   
$EndComp
Wire Wire Line
	1650 1800 1650 1600
Wire Wire Line
	1650 1600 1650 1500
Connection ~ 1650 1600
Wire Wire Line
	1650 1200 1550 1200
Wire Wire Line
	1550 1200 1550 1050
Wire Wire Line
	1550 1200 1550 1800
Connection ~ 1550 1200
$Comp
L Device:L L1
U 1 1 624CB2CF
P 1650 1350
F 0 "L1" H 1702 1396 50  0000 L CNN
F 1 "L" H 1702 1305 50  0000 L CNN
F 2 "" H 1650 1350 50  0001 C CNN
F 3 "~" H 1650 1350 50  0001 C CNN
	1    1650 1350
	1    0    0    -1  
$EndComp
$Comp
L Connector_Generic:Conn_01x03 J0
U 1 1 624D69E0
P 2250 6950
F 0 "J0" H 2330 6992 50  0000 L CNN
F 1 "Power (3V3)" H 2330 6901 50  0000 L CNN
F 2 "" H 2250 6950 50  0001 C CNN
F 3 "~" H 2250 6950 50  0001 C CNN
	1    2250 6950
	1    0    0    -1  
$EndComp
$Comp
L power:VCC #PWR?
U 1 1 624D7481
P 1950 7050
F 0 "#PWR?" H 1950 6900 50  0001 C CNN
F 1 "VCC" H 1965 7223 50  0000 C CNN
F 2 "" H 1950 7050 50  0001 C CNN
F 3 "" H 1950 7050 50  0001 C CNN
	1    1950 7050
	-1   0    0    1   
$EndComp
$Comp
L power:GND #PWR?
U 1 1 624D7EE4
P 1600 7350
F 0 "#PWR?" H 1600 7100 50  0001 C CNN
F 1 "GND" H 1605 7177 50  0000 C CNN
F 2 "" H 1600 7350 50  0001 C CNN
F 3 "" H 1600 7350 50  0001 C CNN
	1    1600 7350
	1    0    0    -1  
$EndComp
Wire Wire Line
	1950 7050 2050 7050
Wire Wire Line
	2050 6850 1950 6850
$Comp
L Device:C C13
U 1 1 624F77EA
P 1400 6850
F 0 "C13" V 1550 6900 50  0000 R CNN
F 1 "0.1uF" V 1250 6950 50  0000 R CNN
F 2 "" H 1438 6700 50  0001 C CNN
F 3 "~" H 1400 6850 50  0001 C CNN
	1    1400 6850
	0    -1   -1   0   
$EndComp
$Comp
L Device:R R9
U 1 1 6250385C
P 1800 6850
F 0 "R9" V 1800 6800 50  0000 L CNN
F 1 "???Ω" V 1700 6800 50  0000 L CNN
F 2 "" V 1730 6850 50  0001 C CNN
F 3 "~" H 1800 6850 50  0001 C CNN
	1    1800 6850
	0    1    1    0   
$EndComp
$Comp
L Device:R R10
U 1 1 6250410D
P 1600 7100
F 0 "R10" V 1600 7050 50  0000 L CNN
F 1 "???Ω" V 1500 7050 50  0000 L CNN
F 2 "" V 1530 7100 50  0001 C CNN
F 3 "~" H 1600 7100 50  0001 C CNN
	1    1600 7100
	-1   0    0    1   
$EndComp
Wire Wire Line
	1550 6850 1600 6850
Wire Wire Line
	1150 6850 1250 6850
Wire Wire Line
	1150 6850 1150 7350
Wire Wire Line
	1150 7350 1600 7350
Wire Wire Line
	1600 7250 1600 7350
Connection ~ 1600 7350
Wire Wire Line
	1600 6950 1600 6850
Connection ~ 1600 6850
Wire Wire Line
	1600 6850 1650 6850
Wire Wire Line
	2050 6950 1800 6950
Wire Wire Line
	1800 6950 1800 7350
Wire Wire Line
	1800 7350 1600 7350
Text Label 2000 6850 1    50   ~ 0
UBAT
Text Label 1600 6650 0    50   ~ 0
BAT_ADC
Wire Wire Line
	1600 6650 1600 6850
Wire Wire Line
	2150 2100 2300 2100
Text Label 2300 2100 0    50   ~ 0
BAT_ADC
$Comp
L power:GND #PWR?
U 1 1 6257635A
P 2150 1700
F 0 "#PWR?" H 2150 1450 50  0001 C CNN
F 1 "GND" H 2155 1527 50  0000 C CNN
F 2 "" H 2150 1700 50  0001 C CNN
F 3 "" H 2150 1700 50  0001 C CNN
	1    2150 1700
	1    0    0    -1  
$EndComp
Wire Wire Line
	2150 1700 2150 1600
Wire Wire Line
	2150 1600 1950 1600
$Comp
L Device:R R11
U 1 1 625DEFB9
P 3250 2600
F 0 "R11" V 3250 2550 50  0000 L CNN
F 1 "300Ω" V 3150 2550 50  0000 L CNN
F 2 "" V 3180 2600 50  0001 C CNN
F 3 "~" H 3250 2600 50  0001 C CNN
	1    3250 2600
	0    1    1    0   
$EndComp
Wire Wire Line
	3400 2600 3500 2600
Wire Wire Line
	3100 2600 3000 2600
Wire Wire Line
	3800 2600 3950 2600
Text Label 4400 2450 0    50   ~ 0
LED1
$Comp
L Device:R R12
U 1 1 62603E61
P 4650 2450
F 0 "R12" V 4650 2400 50  0000 L CNN
F 1 "300Ω" V 4550 2400 50  0000 L CNN
F 2 "" V 4580 2450 50  0001 C CNN
F 3 "~" H 4650 2450 50  0001 C CNN
	1    4650 2450
	0    1    1    0   
$EndComp
Wire Wire Line
	4500 2450 4400 2450
Wire Wire Line
	4800 2450 4900 2450
Wire Wire Line
	9400 5150 9750 5150
Wire Wire Line
	9600 1300 9600 1200
Connection ~ 9600 1300
Wire Wire Line
	10250 1700 10250 1200
$Comp
L power:VCC #PWR?
U 1 1 6266ACA5
P 9600 1200
F 0 "#PWR?" H 9600 1050 50  0001 C CNN
F 1 "VCC" H 9615 1373 50  0000 C CNN
F 2 "" H 9600 1200 50  0001 C CNN
F 3 "" H 9600 1200 50  0001 C CNN
	1    9600 1200
	1    0    0    -1  
$EndComp
$Comp
L power:VCC #PWR?
U 1 1 6266C179
P 10250 3400
F 0 "#PWR?" H 10250 3250 50  0001 C CNN
F 1 "VCC" H 10265 3573 50  0000 C CNN
F 2 "" H 10250 3400 50  0001 C CNN
F 3 "" H 10250 3400 50  0001 C CNN
	1    10250 3400
	0    -1   -1   0   
$EndComp
$Sheet
S 14900 5900 3450 2350
U 61D8195D
F0 "PowerSupply" 50
F1 "power_supply.sch" 50
$EndSheet
$EndSCHEMATC
